Data Wrangling and Visualization
…
df <- read_csv("~/Desktop/exam_prep_inference_cep.csv")

## Parsed with column specification:
## cols(
##   .default = col_double(),
##   Type = col_character(),
##   Xray = col_character(),
##   Region = col_character()
## )

## See spec(...) for full column specifications.

df

## # A tibble: 2,166 x 27
##       RA   Dec Type   Band1 Band2 Band3 Band4 Band5 Band6 Band7 Band8 Band9
##    <dbl> <dbl> <chr>  <dbl> <dbl> <dbl> <dbl> <dbl> <dbl> <dbl> <dbl> <dbl>
##  1  344.  62.6 no di  15.1  13.3  12.1  11.6  11.4  11.2  11.2  11.2  11.2
##  2  344.  62.8 no di  17.6  15.2  13.8  13.2  12.9  12.7  12.7  12.6  12.7
##  3  344.  62.7 no di  15.9  13.8  12.0  11.2  10.9  10.8  10.8  10.7  10.7
##  4  344.  62.6 no di  20.2  17.1  15.0  14.1  13.7  13.4  13.4  13.2  13.3
##  5  344.  62.5 no di  18.8  16.1  14.1  13.2  12.9  12.7  12.6  12.6  12.5
##  6  344.  62.4 no di  19.6  16.4  14.2  13.3  13.0  12.6  12.6  12.4  11.8
##  7  344.  62.6 no di  22.2  18.1  15.8  14.8  14.3  14.0  13.9  14.0  13.9
##  8  344.  62.5 no di  19.4  15.9  13.2  12.0  11.6  11.2  11.2  11.1  11.2
##  9  344.  62.4 no di  21.2  17.5  14.7  13.5  13.1  12.7  12.7  12.7  12.6
## 10  344.  62.5 no di  20.1  16.9  14.6  13.5  13.2  13.0  12.9  12.9  13.0
## #  with 2,156 more rows, and 15 more variables: Band10 <dbl>, Dust <dbl>,
## #   Xray <chr>, parallax <dbl>, parallax_error <dbl>, pmra <dbl>,
## #   pmra_error <dbl>, pmdec <dbl>, pmdec_error <dbl>, teff_val <dbl>,
## #   a_g_val <dbl>, radius_val <dbl>, lum_val <dbl>, Distance <dbl>,
## #   Region <chr>
…
## # A tibble: 1 x 1
##    stat
##   <dbl>
## 1  41.6

null_dist <- df_three %>% 
  specify(Type ~ Region) %>%
  hypothesize(null = "independence") %>%
  generate(reps = 1000, type = "permute") %>%
  calculate(stat = "Chisq")

null_dist

## # A tibble: 1,000 x 2
##    replicate  stat
##        <int> <dbl>
##  1         1 1.92 
##  2         2 0.885
##  3         3 1.22 
##  4         4 0.852
##  5         5 0.137
##  6         6 1.08 
##  7         7 1.92 
##  8         8 3.60 
##  9         9 0.517
## 10        10 1.68 
## #  with 990 more rows
…
